{
	"spectrumId":"F(6)A2BG1",
	"mzStart":200,
	"mzStop":2500,
	"peaks":[
	{
	"mz":263.1,
	"intensity":3516
	},
	{
	"mz":274.1,
	"intensity":1308
	},
	{
	"mz":275.9,
	"intensity":456
	},
	{
	"mz":281.7,
	"intensity":2506
	},
	{
	"mz":291.1,
	"intensity":683
	},
	{
	"mz":302.1,
	"intensity":290
	},
	{
	"mz":304,
	"intensity":1178
	},
	{
	"mz":304.2,
	"intensity":799
	},
	{
	"mz":309.9,
	"intensity":359
	},
	{
	"mz":326.1,
	"intensity":595
	},
	{
	"mz":332.2,
	"intensity":1189
	},
	{
	"mz":345.1,
	"intensity":541
	},
	{
	"mz":347.3,
	"intensity":797
	},
	{
	"mz":350.3,
	"intensity":8369
	},
	{
	"mz":351.2,
	"intensity":294
	},
	{
	"mz":364.2,
	"intensity":761
	},
	{
	"mz":365.1,
	"intensity":792
	},
	{
	"mz":366.1,
	"intensity":765
	},
	{
	"mz":367.3,
	"intensity":622
	},
	{
	"mz":368.2,
	"intensity":4713
	},
	{
	"mz":382.1,
	"intensity":1478
	},
	{
	"mz":389.1,
	"intensity":3448
	},
	{
	"mz":390.3,
	"intensity":252
	},
	{
	"mz":397.4,
	"intensity":698
	},
	{
	"mz":407,
	"intensity":4829
	},
	{
	"mz":407.3,
	"intensity":3030
	},
	{
	"mz":409.2,
	"intensity":568
	},
	{
	"mz":424.1,
	"intensity":8109
	},
	{
	"mz":425.1,
	"intensity":1333
	},
	{
	"mz":426.2,
	"intensity":1630
	},
	{
	"mz":427.2,
	"intensity":293
	},
	{
	"mz":430.2,
	"intensity":983
	},
	{
	"mz":442.2,
	"intensity":293
	},
	{
	"mz":446.2,
	"intensity":306
	},
	{
	"mz":461.8,
	"intensity":331
	},
	{
	"mz":465.5,
	"intensity":221
	},
	{
	"mz":466.2,
	"intensity":221
	},
	{
	"mz":467.2,
	"intensity":612
	},
	{
	"mz":471.1,
	"intensity":770
	},
	{
	"mz":472.2,
	"intensity":1402
	},
	{
	"mz":490.2,
	"intensity":505
	},
	{
	"mz":491.3,
	"intensity":573
	},
	{
	"mz":500.2,
	"intensity":2627
	},
	{
	"mz":508.2,
	"intensity":320
	},
	{
	"mz":519.7,
	"intensity":392
	},
	{
	"mz":528.4,
	"intensity":248
	},
	{
	"mz":528.7,
	"intensity":1885
	},
	{
	"mz":532.2,
	"intensity":1039
	},
	{
	"mz":547.8,
	"intensity":753
	},
	{
	"mz":548.2,
	"intensity":3598
	},
	{
	"mz":548.7,
	"intensity":390
	},
	{
	"mz":550.1,
	"intensity":659
	},
	{
	"mz":553.4,
	"intensity":2395
	},
	{
	"mz":554.2,
	"intensity":736
	},
	{
	"mz":556.1,
	"intensity":784
	},
	{
	"mz":556.8,
	"intensity":1766
	},
	{
	"mz":557.7,
	"intensity":285
	},
	{
	"mz":568.6,
	"intensity":550
	},
	{
	"mz":569.3,
	"intensity":3849
	},
	{
	"mz":571.4,
	"intensity":8387
	},
	{
	"mz":572.3,
	"intensity":1057
	},
	{
	"mz":576.8,
	"intensity":333
	},
	{
	"mz":578.7,
	"intensity":510
	},
	{
	"mz":581.2,
	"intensity":4277
	},
	{
	"mz":582.3,
	"intensity":1331
	},
	{
	"mz":586.2,
	"intensity":927
	},
	{
	"mz":588.3,
	"intensity":3522
	},
	{
	"mz":589,
	"intensity":1006
	},
	{
	"mz":598.3,
	"intensity":229
	},
	{
	"mz":598.7,
	"intensity":309
	},
	{
	"mz":600.7,
	"intensity":237
	},
	{
	"mz":604.3,
	"intensity":1036
	},
	{
	"mz":607.2,
	"intensity":717
	},
	{
	"mz":607.7,
	"intensity":235
	},
	{
	"mz":608.3,
	"intensity":501
	},
	{
	"mz":609.1,
	"intensity":5581
	},
	{
	"mz":619.3,
	"intensity":1148
	},
	{
	"mz":619.6,
	"intensity":365
	},
	{
	"mz":628.1,
	"intensity":4957
	},
	{
	"mz":628.6,
	"intensity":2520
	},
	{
	"mz":629.2,
	"intensity":1508
	},
	{
	"mz":629.8,
	"intensity":3176
	},
	{
	"mz":630.3,
	"intensity":4771
	},
	{
	"mz":631.1,
	"intensity":503
	},
	{
	"mz":636.8,
	"intensity":6214
	},
	{
	"mz":640.1,
	"intensity":1020
	},
	{
	"mz":649.4,
	"intensity":3271
	},
	{
	"mz":649.8,
	"intensity":2260
	},
	{
	"mz":650.3,
	"intensity":771
	},
	{
	"mz":650.6,
	"intensity":1829
	},
	{
	"mz":652.1,
	"intensity":6207
	},
	{
	"mz":653.1,
	"intensity":1647
	},
	{
	"mz":654.1,
	"intensity":1614
	},
	{
	"mz":657.8,
	"intensity":4619
	},
	{
	"mz":658.2,
	"intensity":2292
	},
	{
	"mz":658.6,
	"intensity":235
	},
	{
	"mz":662.3,
	"intensity":999
	},
	{
	"mz":669.1,
	"intensity":453
	},
	{
	"mz":670.2,
	"intensity":13464
	},
	{
	"mz":671.1,
	"intensity":1308
	},
	{
	"mz":671.4,
	"intensity":1806
	},
	{
	"mz":671.7,
	"intensity":643
	},
	{
	"mz":672,
	"intensity":632
	},
	{
	"mz":679.2,
	"intensity":5536
	},
	{
	"mz":680,
	"intensity":4201
	},
	{
	"mz":680.5,
	"intensity":1567
	},
	{
	"mz":682.6,
	"intensity":1819
	},
	{
	"mz":683.3,
	"intensity":228
	},
	{
	"mz":685.3,
	"intensity":1042
	},
	{
	"mz":685.7,
	"intensity":855
	},
	{
	"mz":688.1,
	"intensity":551
	},
	{
	"mz":688.4,
	"intensity":245
	},
	{
	"mz":688.7,
	"intensity":1885
	},
	{
	"mz":690.1,
	"intensity":849
	},
	{
	"mz":690.7,
	"intensity":382
	},
	{
	"mz":693.2,
	"intensity":1609
	},
	{
	"mz":695.3,
	"intensity":1457
	},
	{
	"mz":696.5,
	"intensity":355
	},
	{
	"mz":700.1,
	"intensity":1805
	},
	{
	"mz":700.2,
	"intensity":1941
	},
	{
	"mz":700.8,
	"intensity":2198
	},
	{
	"mz":701.3,
	"intensity":3663
	},
	{
	"mz":701.7,
	"intensity":817
	},
	{
	"mz":703.3,
	"intensity":1780
	},
	{
	"mz":709.7,
	"intensity":4026
	},
	{
	"mz":710.2,
	"intensity":285
	},
	{
	"mz":710.4,
	"intensity":422
	},
	{
	"mz":710.8,
	"intensity":5941
	},
	{
	"mz":711.3,
	"intensity":8817
	},
	{
	"mz":711.8,
	"intensity":3029
	},
	{
	"mz":712.3,
	"intensity":1570
	},
	{
	"mz":714.2,
	"intensity":581
	},
	{
	"mz":720.8,
	"intensity":274
	},
	{
	"mz":721.8,
	"intensity":1592
	},
	{
	"mz":722.3,
	"intensity":2232
	},
	{
	"mz":724.2,
	"intensity":352
	},
	{
	"mz":726.2,
	"intensity":277
	},
	{
	"mz":729.8,
	"intensity":251
	},
	{
	"mz":730.3,
	"intensity":11637
	},
	{
	"mz":730.8,
	"intensity":2134
	},
	{
	"mz":731.3,
	"intensity":6408
	},
	{
	"mz":731.7,
	"intensity":11936
	},
	{
	"mz":732.4,
	"intensity":388
	},
	{
	"mz":736.8,
	"intensity":1684
	},
	{
	"mz":741.8,
	"intensity":299
	},
	{
	"mz":742.2,
	"intensity":1974
	},
	{
	"mz":748.3,
	"intensity":568
	},
	{
	"mz":749.3,
	"intensity":586
	},
	{
	"mz":750.7,
	"intensity":2723
	},
	{
	"mz":750.9,
	"intensity":1890
	},
	{
	"mz":751.3,
	"intensity":2025
	},
	{
	"mz":752.1,
	"intensity":497
	},
	{
	"mz":752.4,
	"intensity":291
	},
	{
	"mz":753.3,
	"intensity":1295
	},
	{
	"mz":756.8,
	"intensity":876
	},
	{
	"mz":766.3,
	"intensity":825
	},
	{
	"mz":767.8,
	"intensity":718
	},
	{
	"mz":771.7,
	"intensity":921
	},
	{
	"mz":772.5,
	"intensity":224
	},
	{
	"mz":774.8,
	"intensity":1119
	},
	{
	"mz":779.4,
	"intensity":3484
	},
	{
	"mz":780.8,
	"intensity":443
	},
	{
	"mz":782.3,
	"intensity":6832
	},
	{
	"mz":782.8,
	"intensity":372
	},
	{
	"mz":783.3,
	"intensity":743
	},
	{
	"mz":790.9,
	"intensity":288
	},
	{
	"mz":791.3,
	"intensity":5748
	},
	{
	"mz":791.8,
	"intensity":4346
	},
	{
	"mz":792.2,
	"intensity":2568
	},
	{
	"mz":794.4,
	"intensity":884
	},
	{
	"mz":801.5,
	"intensity":546
	},
	{
	"mz":801.8,
	"intensity":2113
	},
	{
	"mz":802.3,
	"intensity":4077
	},
	{
	"mz":802.8,
	"intensity":3185
	},
	{
	"mz":803.4,
	"intensity":4670
	},
	{
	"mz":803.8,
	"intensity":5797
	},
	{
	"mz":804.8,
	"intensity":1124
	},
	{
	"mz":810.7,
	"intensity":3099
	},
	{
	"mz":811.2,
	"intensity":859
	},
	{
	"mz":811.8,
	"intensity":1351
	},
	{
	"mz":812.4,
	"intensity":22825
	},
	{
	"mz":812.8,
	"intensity":17171
	},
	{
	"mz":813.2,
	"intensity":4514
	},
	{
	"mz":813.4,
	"intensity":9904
	},
	{
	"mz":813.7,
	"intensity":5717
	},
	{
	"mz":814.4,
	"intensity":1817
	},
	{
	"mz":823.8,
	"intensity":4037
	},
	{
	"mz":824.8,
	"intensity":371
	},
	{
	"mz":831.3,
	"intensity":667
	},
	{
	"mz":831.8,
	"intensity":17404
	},
	{
	"mz":832.4,
	"intensity":7206
	},
	{
	"mz":832.9,
	"intensity":4032
	},
	{
	"mz":833.3,
	"intensity":4323
	},
	{
	"mz":834.3,
	"intensity":3936
	},
	{
	"mz":836.5,
	"intensity":243
	},
	{
	"mz":840.7,
	"intensity":1481
	},
	{
	"mz":841.2,
	"intensity":462
	},
	{
	"mz":841.8,
	"intensity":337
	},
	{
	"mz":847.2,
	"intensity":2591
	},
	{
	"mz":848.3,
	"intensity":3707
	},
	{
	"mz":853.1,
	"intensity":1727
	},
	{
	"mz":853.5,
	"intensity":1966
	},
	{
	"mz":853.6,
	"intensity":1123
	},
	{
	"mz":854.3,
	"intensity":1479
	},
	{
	"mz":854.6,
	"intensity":382
	},
	{
	"mz":854.8,
	"intensity":971
	},
	{
	"mz":855.1,
	"intensity":872
	},
	{
	"mz":855.2,
	"intensity":1744
	},
	{
	"mz":856.7,
	"intensity":239
	},
	{
	"mz":857.5,
	"intensity":293
	},
	{
	"mz":862.7,
	"intensity":1096
	},
	{
	"mz":863.8,
	"intensity":1834
	},
	{
	"mz":873.2,
	"intensity":1698
	},
	{
	"mz":876.1,
	"intensity":1110
	},
	{
	"mz":883.4,
	"intensity":3137
	},
	{
	"mz":883.9,
	"intensity":5392
	},
	{
	"mz":884.3,
	"intensity":15636
	},
	{
	"mz":884.6,
	"intensity":2263
	},
	{
	"mz":892.3,
	"intensity":969
	},
	{
	"mz":892.8,
	"intensity":3557
	},
	{
	"mz":893.3,
	"intensity":4641
	},
	{
	"mz":893.9,
	"intensity":581
	},
	{
	"mz":894.3,
	"intensity":236
	},
	{
	"mz":898.2,
	"intensity":1020
	},
	{
	"mz":900.4,
	"intensity":1667
	},
	{
	"mz":900.6,
	"intensity":251
	},
	{
	"mz":901.2,
	"intensity":459
	},
	{
	"mz":903.9,
	"intensity":1901
	},
	{
	"mz":904.5,
	"intensity":643
	},
	{
	"mz":904.9,
	"intensity":1146
	},
	{
	"mz":910.5,
	"intensity":1738
	},
	{
	"mz":936.6,
	"intensity":473
	},
	{
	"mz":947.1,
	"intensity":426
	},
	{
	"mz":947.3,
	"intensity":324
	},
	{
	"mz":951.4,
	"intensity":1600
	},
	{
	"mz":952.2,
	"intensity":1616
	},
	{
	"mz":952.4,
	"intensity":3742
	},
	{
	"mz":953.3,
	"intensity":3744
	},
	{
	"mz":958,
	"intensity":1075
	},
	{
	"mz":962.5,
	"intensity":1037
	},
	{
	"mz":970.4,
	"intensity":829
	},
	{
	"mz":994.3,
	"intensity":483
	},
	{
	"mz":1035.2,
	"intensity":872
	},
	{
	"mz":1035.6,
	"intensity":247
	},
	{
	"mz":1036.2,
	"intensity":773
	},
	{
	"mz":1036.6,
	"intensity":659
	},
	{
	"mz":1037.3,
	"intensity":1364
	},
	{
	"mz":1039.5,
	"intensity":656
	},
	{
	"mz":1042.5,
	"intensity":486
	},
	{
	"mz":1045.3,
	"intensity":253
	},
	{
	"mz":1053.1,
	"intensity":804
	},
	{
	"mz":1053.3,
	"intensity":1853
	},
	{
	"mz":1055.4,
	"intensity":1053
	},
	{
	"mz":1060.5,
	"intensity":816
	},
	{
	"mz":1077.3,
	"intensity":645
	},
	{
	"mz":1078.2,
	"intensity":488
	},
	{
	"mz":1078.4,
	"intensity":403
	},
	{
	"mz":1080.3,
	"intensity":907
	},
	{
	"mz":1081.3,
	"intensity":1372
	},
	{
	"mz":1082.3,
	"intensity":1393
	},
	{
	"mz":1094.2,
	"intensity":1524
	},
	{
	"mz":1094.5,
	"intensity":1077
	},
	{
	"mz":1095.1,
	"intensity":495
	},
	{
	"mz":1095.5,
	"intensity":2845
	},
	{
	"mz":1096.5,
	"intensity":394
	},
	{
	"mz":1098.2,
	"intensity":1214
	},
	{
	"mz":1098.5,
	"intensity":1194
	},
	{
	"mz":1099.3,
	"intensity":717
	},
	{
	"mz":1109.5,
	"intensity":1252
	},
	{
	"mz":1113.3,
	"intensity":3025
	},
	{
	"mz":1114.5,
	"intensity":768
	},
	{
	"mz":1114.7,
	"intensity":741
	},
	{
	"mz":1115.2,
	"intensity":1793
	},
	{
	"mz":1119.3,
	"intensity":774
	},
	{
	"mz":1130.2,
	"intensity":454
	},
	{
	"mz":1136.5,
	"intensity":312
	},
	{
	"mz":1136.7,
	"intensity":548
	},
	{
	"mz":1137.6,
	"intensity":1139
	},
	{
	"mz":1138.3,
	"intensity":382
	},
	{
	"mz":1155,
	"intensity":441
	},
	{
	"mz":1155.6,
	"intensity":1090
	},
	{
	"mz":1156.3,
	"intensity":258
	},
	{
	"mz":1182.3,
	"intensity":2802
	},
	{
	"mz":1184.7,
	"intensity":599
	},
	{
	"mz":1198.4,
	"intensity":324
	},
	{
	"mz":1200.5,
	"intensity":377
	},
	{
	"mz":1206.5,
	"intensity":342
	},
	{
	"mz":1218.6,
	"intensity":1440
	},
	{
	"mz":1219.4,
	"intensity":3057
	},
	{
	"mz":1222.4,
	"intensity":1668
	},
	{
	"mz":1225.5,
	"intensity":472
	},
	{
	"mz":1239.5,
	"intensity":1783
	},
	{
	"mz":1240.4,
	"intensity":336
	},
	{
	"mz":1241.3,
	"intensity":1714
	},
	{
	"mz":1242.2,
	"intensity":742
	},
	{
	"mz":1242.5,
	"intensity":998
	},
	{
	"mz":1243.5,
	"intensity":676
	},
	{
	"mz":1256.5,
	"intensity":645
	},
	{
	"mz":1258.5,
	"intensity":1004
	},
	{
	"mz":1260.5,
	"intensity":1246
	},
	{
	"mz":1260.8,
	"intensity":462
	},
	{
	"mz":1261.3,
	"intensity":1075
	},
	{
	"mz":1261.6,
	"intensity":614
	},
	{
	"mz":1281.5,
	"intensity":1935
	},
	{
	"mz":1283.5,
	"intensity":1940
	},
	{
	"mz":1283.6,
	"intensity":2413
	},
	{
	"mz":1284.5,
	"intensity":431
	},
	{
	"mz":1299.3,
	"intensity":1342
	},
	{
	"mz":1299.5,
	"intensity":1144
	},
	{
	"mz":1301.5,
	"intensity":786
	},
	{
	"mz":1304.3,
	"intensity":1354
	},
	{
	"mz":1316.5,
	"intensity":5557
	},
	{
	"mz":1317.2,
	"intensity":1483
	},
	{
	"mz":1317.6,
	"intensity":7019
	},
	{
	"mz":1318.5,
	"intensity":2990
	},
	{
	"mz":1319.4,
	"intensity":265
	},
	{
	"mz":1330.4,
	"intensity":1516
	},
	{
	"mz":1359.6,
	"intensity":332
	},
	{
	"mz":1363.5,
	"intensity":577
	},
	{
	"mz":1365.7,
	"intensity":1294
	},
	{
	"mz":1387.6,
	"intensity":1454
	},
	{
	"mz":1397.4,
	"intensity":2213
	},
	{
	"mz":1404.3,
	"intensity":346
	},
	{
	"mz":1405.3,
	"intensity":388
	},
	{
	"mz":1405.6,
	"intensity":2283
	},
	{
	"mz":1406.5,
	"intensity":3602
	},
	{
	"mz":1417.5,
	"intensity":1569
	},
	{
	"mz":1423.5,
	"intensity":2704
	},
	{
	"mz":1427.5,
	"intensity":583
	},
	{
	"mz":1428.5,
	"intensity":502
	},
	{
	"mz":1431.8,
	"intensity":632
	},
	{
	"mz":1441.5,
	"intensity":444
	},
	{
	"mz":1443.3,
	"intensity":3042
	},
	{
	"mz":1444.5,
	"intensity":1045
	},
	{
	"mz":1446.4,
	"intensity":1089
	},
	{
	"mz":1449.5,
	"intensity":548
	},
	{
	"mz":1459.5,
	"intensity":3228
	},
	{
	"mz":1460.2,
	"intensity":708
	},
	{
	"mz":1460.4,
	"intensity":359
	},
	{
	"mz":1461.4,
	"intensity":976
	},
	{
	"mz":1462.6,
	"intensity":818
	},
	{
	"mz":1463.1,
	"intensity":1910
	},
	{
	"mz":1463.6,
	"intensity":5050
	},
	{
	"mz":1464.7,
	"intensity":2147
	},
	{
	"mz":1484.5,
	"intensity":312
	},
	{
	"mz":1533.7,
	"intensity":525
	},
	{
	"mz":1546.7,
	"intensity":1201
	},
	{
	"mz":1547.4,
	"intensity":785
	},
	{
	"mz":1565.5,
	"intensity":766
	},
	{
	"mz":1568.5,
	"intensity":1898
	},
	{
	"mz":1588.6,
	"intensity":897
	},
	{
	"mz":1589.4,
	"intensity":548
	},
	{
	"mz":1607.5,
	"intensity":3690
	},
	{
	"mz":1607.7,
	"intensity":2426
	},
	{
	"mz":1608.6,
	"intensity":1254
	},
	{
	"mz":1609,
	"intensity":264
	},
	{
	"mz":1610.6,
	"intensity":891
	},
	{
	"mz":1626.6,
	"intensity":307
	},
	{
	"mz":1648.8,
	"intensity":913
	},
	{
	"mz":1666.6,
	"intensity":1585
	},
	{
	"mz":1709.7,
	"intensity":1284
	}
]
}
