{
	"spectrumId":"",
	"mzStart":,
	"mzStop":,
	"peaks":[
	{
		"mz":,
	"intensity":
	},
	"mz":,
	"intensity":
	},
	"mz":,
	"intensity":
	},
	"mz":,
	"intensity":
	},
	"mz":,
	"intensity":
	},
	"mz":,
	"intensity":
	},
	"mz":,
	"intensity":
	},
	"mz":,
	"intensity":
	},
	"mz":,
	"intensity":
	},
	"mz":,
	"intensity":
	},
	"mz":,
	"intensity":
	},
	"mz":,
	"intensity":
	},
	"mz":,
	"intensity":
	},
	"mz":,
	"intensity":
	},
	"mz":,
	"intensity":
	},
	"mz":,
	"intensity":
	},
	"mz":,
	"intensity":
	},
	"mz":,
	"intensity":
	},
	"mz":,
	"intensity":
	},
	"mz":,
	"intensity":
	},
	"mz":,
	"intensity":
	},
	"mz":,
	"intensity":
	},
	"mz":,
	"intensity":
	},
	"mz":,
	"intensity":
	},
	"mz":,
	"intensity":
	},
	"mz":,
	"intensity":
	},
	"mz":,
	"intensity":
	},
	"mz":,
	"intensity":
	},
	"mz":,
	"intensity":
	},
	"mz":,
	"intensity":
	},
	"mz":,
	"intensity":
	},
	"mz":,
	"intensity":
	},
	"mz":,
	"intensity":
	},
	"mz":,
	"intensity":
	},
	"mz":,
	"intensity":
	},
	"mz":,
	"intensity":
	},
	"mz":,
	"intensity":
	},
	"mz":,
	"intensity":
	},
	"mz":,
	"intensity":
	},
	"mz":,
	"intensity":
	},
	"mz":,
	"intensity":
	},
	"mz":,
	"intensity":
	},
	"mz":,
	"intensity":
	},
	"mz":,
	"intensity":
	},
	"mz":,
	"intensity":
	},
	"mz":,
	"intensity":
	},
	"mz":,
	"intensity":
	},
	"mz":,
	"intensity":
	},
	"mz":,
	"intensity":
	},
	"mz":,
	"intensity":
	},
	"mz":,
	"intensity":
	},
	"mz":,
	"intensity":
	},
	"mz":,
	"intensity":
	},
	"mz":,
	"intensity":
	},
	"mz":,
	"intensity":
	},
	"mz":,
	"intensity":
	},
	"mz":,
	"intensity":
	},
	"mz":,
	"intensity":
	},
	"mz":,
	"intensity":
	},
	"mz":,
	"intensity":
	},
	"mz":,
	"intensity":
	},
	"mz":,
	"intensity":
	},
	"mz":,
	"intensity":
	},
	"mz":,
	"intensity":
	},
	"mz":,
	"intensity":
	},
	"mz":,
	"intensity":
	},
	"mz":,
	"intensity":
	},
	"mz":,
	"intensity":
	},
	"mz":,
	"intensity":
	},
	"mz":,
	"intensity":
	},
	"mz":,
	"intensity":
	},
	"mz":,
	"intensity":
	},
	"mz":,
	"intensity":
	},
	"mz":,
	"intensity":
	},
	"mz":,
	"intensity":
	},
	"mz":,
	"intensity":
	},
	"mz":,
	"intensity":
	},
	"mz":,
	"intensity":
	},
	"mz":,
	"intensity":
	},
	"mz":,
	"intensity":
	},
	"mz":,
	"intensity":
	},
	"mz":,
	"intensity":
	},
	"mz":,
	"intensity":
	},
	"mz":,
	"intensity":
	},
	"mz":,
	"intensity":
	},
	"mz":,
	"intensity":
	},
	"mz":,
	"intensity":
	},
	"mz":,
	"intensity":
	},
	"mz":,
	"intensity":
	},
	"mz":,
	"intensity":
	},
	"mz":,
	"intensity":
	},
	"mz":,
	"intensity":
	},
	"mz":,
	"intensity":
	},
	"mz":,
	"intensity":
	},
	"mz":,
	"intensity":
	},
	"mz":,
	"intensity":
	},
	"mz":,
	"intensity":
	},
	"mz":,
	"intensity":
	},
	"mz":,
	"intensity":
	},
	"mz":,
	"intensity":
	},
	"mz":,
	"intensity":
	},
	"mz":,
	"intensity":
	},
	"mz":,
	"intensity":
	},
	"mz":,
	"intensity":
	},
	"mz":,
	"intensity":
	},
	"mz":,
	"intensity":
	},
	"mz":,
	"intensity":
	},
	"mz":,
	"intensity":
	},
	"mz":,
	"intensity":
	},
	"mz":,
	"intensity":
	},
	"mz":,
	"intensity":
	},
	"mz":,
	"intensity":
	},
	"mz":,
	"intensity":
	},
	"mz":,
	"intensity":
	},
	"mz":,
	"intensity":
	},
	"mz":,
	"intensity":
	},
	"mz":,
	"intensity":
	},
	"mz":,
	"intensity":
	},
	"mz":,
	"intensity":
	},
	"mz":,
	"intensity":
	},
	"mz":,
	"intensity":
	},
	"mz":,
	"intensity":
	},
	"mz":,
	"intensity":
	},
	"mz":,
	"intensity":
	},
	"mz":,
	"intensity":
	},
	"mz":,
	"intensity":
	},
	"mz":,
	"intensity":
	},
	"mz":,
	"intensity":
	},
	"mz":,
	"intensity":
	},
	"mz":,
	"intensity":
	},
	"mz":,
	"intensity":
	},
	"mz":,
	"intensity":
	},
	"mz":,
	"intensity":
	},
	"mz":,
	"intensity":
	},
	"mz":,
	"intensity":
	},
	"mz":,
	"intensity":
	},
	"mz":,
	"intensity":
	},
	"mz":,
	"intensity":
	},
	"mz":,
	"intensity":
	},
	"mz":,
	"intensity":
	},
	"mz":,
	"intensity":
	},
	"mz":,
	"intensity":
	},
	"mz":,
	"intensity":
	},
	"mz":,
	"intensity":
	},
	"mz":,
	"intensity":
	},
	"mz":,
	"intensity":
	},
	"mz":,
	"intensity":
	},
	"mz":,
	"intensity":
	},
	"mz":,
	"intensity":
	},
	"mz":,
	"intensity":
	},
	"mz":,
	"intensity":
	},
	"mz":,
	"intensity":
	},
	"mz":,
	"intensity":
	},
	"mz":,
	"intensity":
	},
	"mz":,
	"intensity":
	},
	"mz":,
	"intensity":
	},
	"mz":,
	"intensity":
	},
	"mz":,
	"intensity":
	},
	"mz":,
	"intensity":
	},
	"mz":,
	"intensity":
	},
	"mz":,
	"intensity":
	},
	"mz":,
	"intensity":
	},
	"mz":,
	"intensity":
	},
	"mz":,
	"intensity":
	},
	"mz":,
	"intensity":
	},
	"mz":,
	"intensity":
	},
	"mz":,
	"intensity":
	},
	"mz":,
	"intensity":
	},
	"mz":,
	"intensity":
	},
	"mz":,
	"intensity":
	},
	"mz":,
	"intensity":
	},
	"mz":,
	"intensity":
	},
	"mz":,
	"intensity":
	},
	"mz":,
	"intensity":
	},
	"mz":,
	"intensity":
	},
	"mz":,
	"intensity":
	},
	"mz":,
	"intensity":
	},
	"mz":,
	"intensity":
	},
	"mz":,
	"intensity":
	},
	"mz":,
	"intensity":
	},
	"mz":,
	"intensity":
	},
	"mz":,
	"intensity":
	},
	"mz":,
	"intensity":
	},
	"mz":,
	"intensity":
	},
	"mz":,
	"intensity":
	},
	"mz":,
	"intensity":
	},
	"mz":,
	"intensity":
	},
	"mz":,
	"intensity":
	},
	"mz":,
	"intensity":
	},
	"mz":,
	"intensity":
	},
	"mz":,
	"intensity":
	},
	"mz":,
	"intensity":
	},
	"mz":,
	"intensity":
	},
	"mz":,
	"intensity":
	},
	"mz":,
	"intensity":
	},
	"mz":,
	"intensity":
	},
	"mz":,
	"intensity":
	},
	"mz":,
	"intensity":
	},
	"mz":,
	"intensity":
	},
	"mz":,
	"intensity":
	},
	"mz":,
	"intensity":
	},
	"mz":,
	"intensity":
	},
	"mz":,
	"intensity":
	},
	"mz":,
	"intensity":
	},
	"mz":,
	"intensity":
	},
	"mz":,
	"intensity":
	},
	"mz":,
	"intensity":
	},
	"mz":,
	"intensity":
	},
	"mz":,
	"intensity":
	},
	"mz":,
	"intensity":
	},
	"mz":,
	"intensity":
	},
	"mz":,
	"intensity":
	},
	"mz":,
	"intensity":
	},
	"mz":,
	"intensity":
	},
	"mz":,
	"intensity":
	},
	"mz":,
	"intensity":
	},
	"mz":,
	"intensity":
	},
	"mz":,
	"intensity":
	},
	"mz":,
	"intensity":
	},
	"mz":,
	"intensity":
	},
	"mz":,
	"intensity":
	},
	"mz":,
	"intensity":
	},
	"mz":,
	"intensity":
	},
	"mz":,
	"intensity":
	},
	"mz":,
	"intensity":
	},
	"mz":,
	"intensity":
	},
	"mz":,
	"intensity":
	},
	"mz":,
	"intensity":
	},
	"mz":,
	"intensity":
	},
	"mz":,
	"intensity":
	},
	"mz":,
	"intensity":
	},
	"mz":,
	"intensity":
	},
	"mz":,
	"intensity":
	},
	"mz":,
	"intensity":
	},
	"mz":,
	"intensity":
	},
	"mz":,
	"intensity":
	},
	"mz":,
	"intensity":
	},
	"mz":,
	"intensity":
	},
	"mz":,
	"intensity":
	},
	"mz":,
	"intensity":
	},
	"mz":,
	"intensity":
	},
	"mz":,
	"intensity":
	},
	"mz":,
	"intensity":
	},
	"mz":,
	"intensity":
	},
	"mz":,
	"intensity":
	},
	"mz":,
	"intensity":
	},
	"mz":,
	"intensity":
	},
	"mz":,
	"intensity":
	},
	"mz":,
	"intensity":
	},
	"mz":,
	"intensity":
	},
	"mz":,
	"intensity":
	},
	"mz":,
	"intensity":
	},
	"mz":,
	"intensity":
	},
	"mz":,
	"intensity":
	},
	"mz":,
	"intensity":
	},
	"mz":,
	"intensity":
	},
	"mz":,
	"intensity":
	},
	"mz":,
	"intensity":
	},
	"mz":,
	"intensity":
	},
	"mz":,
	"intensity":
	},
	"mz":,
	"intensity":
	},
	"mz":,
	"intensity":
	},
	"mz":,
	"intensity":
	},
	"mz":,
	"intensity":
	},
	"mz":,
	"intensity":
	},
	"mz":,
	"intensity":
	},
	"mz":,
	"intensity":
	},
	"mz":,
	"intensity":
	},
	"mz":,
	"intensity":
	},
	"mz":,
	"intensity":
	},
	"mz":,
	"intensity":
	},
	"mz":,
	"intensity":
	},
	"mz":,
	"intensity":
	},
	"mz":,
	"intensity":
	},
	"mz":,
	"intensity":
	},
	"mz":,
	"intensity":
	},
	"mz":,
	"intensity":
	},
	"mz":,
	"intensity":
	},
	"mz":,
	"intensity":
	},
	"mz":,
	"intensity":
	},
	"mz":,
	"intensity":
	},
	"mz":,
	"intensity":
	},
	"mz":,
	"intensity":
	},
	"mz":,
	"intensity":
	},
	"mz":,
	"intensity":
	},
	"mz":,
	"intensity":
	},
	"mz":,
	"intensity":
	},
	"mz":,
	"intensity":
	},
	"mz":,
	"intensity":
	},
	"mz":,
	"intensity":
	},
	"mz":,
	"intensity":
	},
	"mz":,
	"intensity":
	},
	"mz":,
	"intensity":
	},
	"mz":,
	"intensity":
	},
	"mz":,
	"intensity":
	},
	"mz":,
	"intensity":
	},
	"mz":,
	"intensity":
	},
	"mz":,
	"intensity":
	},
	"mz":,
	"intensity":
	},
	"mz":,
	"intensity":
	},
	"mz":,
	"intensity":
	},
	"mz":,
	"intensity":
	},
	"mz":,
	"intensity":
	},
	"mz":,
	"intensity":
	},
	"mz":,
	"intensity":
	},
	"mz":,
	"intensity":
	},
	"mz":,
	"intensity":
	},
	"mz":,
	"intensity":
	},
	"mz":,
	"intensity":
	},
	"mz":,
	"intensity":
	},
	"mz":,
	"intensity":
	},
	"mz":,
	"intensity":
	},
	"mz":,
	"intensity":
	},
	"mz":,
	"intensity":
	},
	"mz":,
	"intensity":
	},
	"mz":,
	"intensity":
	},
	"mz":,
	"intensity":
	},
	"mz":,
	"intensity":
	},
	"mz":,
	"intensity":
	},
	"mz":,
	"intensity":
	},
	"mz":,
	"intensity":
	},
	"mz":,
	"intensity":
	},
	"mz":,
	"intensity":
	},
	"mz":,
	"intensity":
	},
	"mz":,
	"intensity":
	},
	"mz":,
	"intensity":
	},
	"mz":,
	"intensity":
	},
	"mz":,
	"intensity":
	},
	"mz":,
	"intensity":
	},
	"mz":,
	"intensity":
	},
	"mz":,
	"intensity":
	},
	"mz":,
	"intensity":
	},
	"mz":,
	"intensity":
	},
	"mz":,
	"intensity":
	},
	"mz":,
	"intensity":
	},
	"mz":,
	"intensity":
	},
	"mz":,
	"intensity":
	},
	"mz":,
	"intensity":
	},
	"mz":,
	"intensity":
	},
	"mz":,
	"intensity":
	},
	"mz":,
	"intensity":
	},
	"mz":,
	"intensity":
	},
	"mz":,
	"intensity":
	},
	"mz":,
	"intensity":
	},
	"mz":,
	"intensity":
	},
	"mz":,
	"intensity":
	},
	"mz":,
	"intensity":
	},
	"mz":,
	"intensity":
	},
	"mz":,
	"intensity":
	},
	"mz":,
	"intensity":
	},
	"mz":,
	"intensity":
	},
	"mz":,
	"intensity":
	},
	"mz":,
	"intensity":
	},
	"mz":,
	"intensity":
	},
	"mz":,
	"intensity":
	},
	"mz":,
	"intensity":
	},
	"mz":,
	"intensity":
	},
	"mz":,
	"intensity":
	},
	"mz":,
	"intensity":
	},
	"mz":,
	"intensity":
	},
	"mz":,
	"intensity":
	},
	"mz":,
	"intensity":
	},
	"mz":,
	"intensity":
	},
	"mz":,
	"intensity":
	},
	"mz":,
	"intensity":
	},
	"mz":,
	"intensity":
	},
	"mz":,
	"intensity":
	},
	"mz":,
	"intensity":
	},
	"mz":,
	"intensity":
	},
	"mz":,
	"intensity":
	},
	"mz":,
	"intensity":
	},
	"mz":,
	"intensity":
	},
	"mz":,
	"intensity":
	},
	"mz":,
	"intensity":
	},
	"mz":,
	"intensity":
	},
	"mz":,
	"intensity":
	},
	"mz":,
	"intensity":
	},
	"mz":,
	"intensity":
	},
	"mz":,
	"intensity":
	},
	"mz":,
	"intensity":
	},
	"mz":,
	"intensity":
	},
	"mz":,
	"intensity":
	},
	"mz":,
	"intensity":
	},
	"mz":,
	"intensity":
	},
	"mz":,
	"intensity":
	},
	"mz":,
	"intensity":
	},
	"mz":,
	"intensity":
	},
	"mz":,
	"intensity":
	},
	"mz":,
	"intensity":
	},
	"mz":,
	"intensity":
	},
	"mz":,
	"intensity":
	},
	"mz":,
	"intensity":
	},
	"mz":,
	"intensity":
	},
	"mz":,
	"intensity":
	},
	"mz":,
	"intensity":
	},
	"mz":,
	"intensity":
	},
	"mz":,
	"intensity":
	},
	"mz":,
	"intensity":
	},
	"mz":,
	"intensity":
	},
	"mz":,
	"intensity":
	},
	"mz":,
	"intensity":
	},
	"mz":,
	"intensity":
	},
	"mz":,
	"intensity":
	},
	"mz":,
	"intensity":
	},
	"mz":,
	"intensity":
	},
	"mz":,
	"intensity":
	},
	"mz":,
	"intensity":
	},
	"mz":,
	"intensity":
	},
	"mz":,
	"intensity":
	},
	"mz":,
	"intensity":
	},
	"mz":,
	"intensity":
	},
	"mz":,
	"intensity":
	},
	"mz":,
	"intensity":
	},
	"mz":,
	"intensity":
	},
	"mz":,
	"intensity":
	},
	"mz":,
	"intensity":
	},
	"mz":,
	"intensity":
	},
	"mz":,
	"intensity":
	},
	"mz":,
	"intensity":
	},
	"mz":,
	"intensity":
	},
	"mz":,
	"intensity":
	},
	"mz":,
	"intensity":
	},
	"mz":,
	"intensity":
	},
	"mz":,
	"intensity":
	},
	"mz":,
	"intensity":
	},
	"mz":,
	"intensity":
	},
	"mz":,
	"intensity":
	},
	"mz":,
	"intensity":
	},
	"mz":,
	"intensity":
	},
	"mz":,
	"intensity":
	},
	"mz":,
	"intensity":
	},
	"mz":,
	"intensity":
	},
	"mz":,
	"intensity":
	},
	"mz":,
	"intensity":
	},
	"mz":,
	"intensity":
	},
	"mz":,
	"intensity":
	},
	"mz":,
	"intensity":
	},
	"mz":,
	"intensity":
	},
	"mz":,
	"intensity":
	},
	"mz":,
	"intensity":
	},
	"mz":,
	"intensity":
	},
	"mz":,
	"intensity":
	},
	"mz":,
	"intensity":
	},
	"mz":,
	"intensity":
	},
	"mz":,
	"intensity":
	},
	"mz":,
	"intensity":
	},
	"mz":,
	"intensity":
	},
	"mz":,
	"intensity":
	},
	"mz":,
	"intensity":
	},
	"mz":,
	"intensity":
	},
	"mz":,
	"intensity":
	},
	"mz":,
	"intensity":
	},
	"mz":,
	"intensity":
	},
	"mz":,
	"intensity":
	},
	"mz":,
	"intensity":
	},
	"mz":,
	"intensity":
	},
	"mz":,
	"intensity":
	},
	"mz":,
	"intensity":
	},
	"mz":,
	"intensity":
	},
	"mz":,
	"intensity":
	},
	"mz":,
	"intensity":
	},
	"mz":,
	"intensity":
	},
	"mz":,
	"intensity":
	},
	"mz":,
	"intensity":
	},
	"mz":,
	"intensity":
	},
	"mz":,
	"intensity":
	},
	"mz":,
	"intensity":
	},
	"mz":,
	"intensity":
	},
	"mz":,
	"intensity":
	},
	"mz":,
	"intensity":
	},
	"mz":,
	"intensity":
	},
	"mz":,
	"intensity":
	},
	"mz":,
	"intensity":
	},
	"mz":,
	"intensity":
	},
	"mz":,
	"intensity":
	},
	"mz":,
	"intensity":
	},
	"mz":,
	"intensity":
	},
	"mz":,
	"intensity":
	},
	"mz":,
	"intensity":
	},
	"mz":,
	"intensity":
	},
	"mz":,
	"intensity":
	},
	"mz":,
	"intensity":
	},
	"mz":,
	"intensity":
	},
	"mz":,
	"intensity":
	},
	"mz":,
	"intensity":
	},
	"mz":,
	"intensity":
	},
	"mz":,
	"intensity":
	},
	"mz":,
	"intensity":
	},
	"mz":,
	"intensity":
	},
	"mz":,
	"intensity":
	},
	"mz":,
	"intensity":
	},
	"mz":,
	"intensity":
	},
	"mz":,
	"intensity":
	},
	"mz":,
	"intensity":
	},
	"mz":,
	"intensity":
	},
	"mz":,
	"intensity":
	},
	"mz":,
	"intensity":
	},
	"mz":,
	"intensity":
	},
	"mz":,
	"intensity":
	},
	"mz":,
	"intensity":
	},
	"mz":,
	"intensity":
	},
	"mz":,
	"intensity":
	},
	"mz":,
	"intensity":
	},
	"mz":,
	"intensity":
	},
	"mz":,
	"intensity":
	},
	"mz":,
	"intensity":
	},
	"mz":,
	"intensity":
	},
	"mz":,
	"intensity":
	},
	"mz":,
	"intensity":
	},
	"mz":,
	"intensity":
	},
	"mz":,
	"intensity":
	},
	"mz":,
	"intensity":
	},
	"mz":,
	"intensity":
	},
	"mz":,
	"intensity":
	},
	"mz":,
	"intensity":
	},
	"mz":,
	"intensity":
	},
	"mz":,
	"intensity":
	},
	"mz":,
	"intensity":
	},
	"mz":,
	"intensity":
	},
	"mz":,
	"intensity":
	},
	"mz":,
	"intensity":
	},
	"mz":,
	"intensity":
	},
	"mz":,
	"intensity":
	},
	"mz":,
	"intensity":
	},
	"mz":,
	"intensity":
	},
	"mz":,
	"intensity":
	},
	"mz":,
	"intensity":
	},
	"mz":,
	"intensity":
	},
	"mz":,
	"intensity":
	},
	"mz":,
	"intensity":
	},
	"mz":,
	"intensity":
	},
	"mz":,
	"intensity":
	},
	"mz":,
	"intensity":
	},
	"mz":,
	"intensity":
	},
	"mz":,
	"intensity":
	},
	"mz":,
	"intensity":
	},
	"mz":,
	"intensity":
	},
	"mz":,
	"intensity":
	},
	"mz":,
	"intensity":
	},
	"mz":,
	"intensity":
	},
	"mz":,
	"intensity":
	},
	"mz":,
	"intensity":
	},
	"mz":,
	"intensity":
	},
	"mz":,
	"intensity":
	},
	"mz":,
	"intensity":
	},
	"mz":,
	"intensity":
	},
	"mz":,
	"intensity":
	},
	"mz":,
	"intensity":
	},
	"mz":,
	"intensity":
	},
	"mz":,
	"intensity":
	},
	"mz":,
	"intensity":
	},
	"mz":,
	"intensity":
	},
	"mz":,
	"intensity":
	},
	"mz":,
	"intensity":
	},
	"mz":,
	"intensity":
	},
	"mz":,
	"intensity":
	},
	"mz":,
	"intensity":
	},
	"mz":,
	"intensity":
	},
	"mz":,
	"intensity":
	},
	"mz":,
	"intensity":
	},
	"mz":,
	"intensity":
	},
	"mz":,
	"intensity":
	},
	"mz":,
	"intensity":
	},
	"mz":,
	"intensity":
	},
	"mz":,
	"intensity":
	},
	"mz":,
	"intensity":
	},
	"mz":,
	"intensity":
	},
	"mz":,
	"intensity":
	},
	"mz":,
	"intensity":
	},
	"mz":,
	"intensity":
	},
	"mz":,
	"intensity":
	},
	"mz":,
	"intensity":
	},
	"mz":,
	"intensity":
	},
	"mz":,
	"intensity":
	},
	"mz":,
	"intensity":
	},
	"mz":,
	"intensity":
	},
	"mz":,
	"intensity":
	},
	"mz":,
	"intensity":
	},
	"mz":,
	"intensity":
	},
	"mz":,
	"intensity":
	},
	"mz":,
	"intensity":
	},
	"mz":,
	"intensity":
	},
	"mz":,
	"intensity":
	},
	"mz":,
	"intensity":
	},
	"mz":,
	"intensity":
	},
	"mz":,
	"intensity":
	},
	"mz":,
	"intensity":
	},
	"mz":,
	"intensity":
	},
	"mz":,
	"intensity":
	},
	"mz":,
	"intensity":
	},
	"mz":,
	"intensity":
	},
	"mz":,
	"intensity":
	},
	"mz":,
	"intensity":
	},
	"mz":,
	"intensity":
	},
	"mz":,
	"intensity":
	},
	"mz":,
	"intensity":
	},
	"mz":,
	"intensity":
	},
	"mz":,
	"intensity":
	},
	"mz":,
	"intensity":
	},
	"mz":,
	"intensity":
	},
	"mz":,
	"intensity":
	},
	"mz":,
	"intensity":
	},
	"mz":,
	"intensity":
	},
	"mz":,
	"intensity":
	},
	"mz":,
	"intensity":
	},
	"mz":,
	"intensity":
	},
	"mz":,
	"intensity":
	},
	"mz":,
	"intensity":
	},
	"mz":,
	"intensity":
	},
	"mz":,
	"intensity":
	},
	"mz":,
	"intensity":
	},
	"mz":,
	"intensity":
	},
	"mz":,
	"intensity":
	},
	"mz":,
	"intensity":
	},
	"mz":,
	"intensity":
	},
	"mz":,
	"intensity":
	},
	"mz":,
	"intensity":
	},
	"mz":,
	"intensity":
	},
	"mz":,
	"intensity":
	},
	"mz":,
	"intensity":
	},
	"mz":,
	"intensity":
	},
	"mz":,
	"intensity":
	},
	"mz":,
	"intensity":
	},
	"mz":,
	"intensity":
	},
	"mz":,
	"intensity":
	},
	"mz":,
	"intensity":
	},
	"mz":,
	"intensity":
	},
	"mz":,
	"intensity":
	},
	"mz":,
	"intensity":
	},
	"mz":,
	"intensity":
	},
	"mz":,
	"intensity":
	},
	"mz":,
	"intensity":
	},
	"mz":,
	"intensity":
	},
	"mz":,
	"intensity":
	},
	"mz":,
	"intensity":
	},
	"mz":,
	"intensity":
	},
	"mz":,
	"intensity":
	},
	"mz":,
	"intensity":
	},
	"mz":,
	"intensity":
	},
	"mz":,
	"intensity":
	},
	"mz":,
	"intensity":
	},
	"mz":,
	"intensity":
	},
	"mz":,
	"intensity":
	},
	"mz":,
	"intensity":
	},
	"mz":,
	"intensity":
	},
	"mz":,
	"intensity":
	},
	"mz":,
	"intensity":
	},
	"mz":,
	"intensity":
	},
	"mz":,
	"intensity":
	},
	"mz":,
	"intensity":
	},
	"mz":,
	"intensity":
	},
	"mz":,
	"intensity":
	},
	"mz":,
	"intensity":
	},
	"mz":,
	"intensity":
	},
	"mz":,
	"intensity":
	},
	"mz":,
	"intensity":
	},
	"mz":,
	"intensity":
	},
	"mz":,
	"intensity":
	},
	"mz":,
	"intensity":
	},
	"mz":,
	"intensity":
	},
	"mz":,
	"intensity":
	},
	"mz":,
	"intensity":
	},
	"mz":,
	"intensity":
	},
	"mz":,
	"intensity":
	},
	"mz":,
	"intensity":
	},
	"mz":,
	"intensity":
	},

]
}